# Blender v2.71 (sub 0) OBJ File: 'health.blend'
# www.blender.org
v -0.323517 -0.263133 -0.381478
v -0.323517 0.229737 -0.381478
v 0.154710 0.229737 -0.381478
v 0.154710 -0.263133 -0.381478
v -0.323517 -0.263135 1.618522
v -0.323517 0.229735 1.618522
v 0.154710 0.229735 1.618522
v 0.154710 -0.263135 1.618522
v -0.323517 -1.028476 0.864957
v -0.323517 -1.028476 0.372087
v 0.154710 -1.028476 0.372087
v 0.154710 -1.028476 0.864957
v -0.323517 0.971524 0.864957
v -0.323517 0.971524 0.372087
v 0.154710 0.971524 0.372087
v 0.154710 0.971524 0.864957
s off
f 5 6 2
f 7 3 2
f 8 4 3
f 5 1 4
f 2 3 4
f 7 6 5
f 14 10 9
f 15 11 10
f 16 12 11
f 13 9 12
f 10 11 12
f 15 14 13
f 1 5 2
f 6 7 2
f 7 8 3
f 8 5 4
f 1 2 4
f 8 7 5
f 13 14 9
f 14 15 10
f 15 16 11
f 16 13 12
f 9 10 12
f 16 15 13
