# Blender v2.71 (sub 0) OBJ File: ''
# www.blender.org
v -10.742900 -8.751098 -9.556601
v -22.180201 -11.999800 -1.575702
v -18.571800 -11.368999 -8.587402
v -19.712099 -10.221898 -9.013701
v -12.586900 -8.001998 -9.097501
v -21.900299 -7.763399 -9.776701
v -19.003700 -5.386798 -10.364901
v -11.128900 -5.105299 -8.894001
v -24.240801 -2.495199 -2.327301
v -19.038401 -3.322999 -8.735001
v -20.563801 -2.909198 -10.108700
v -22.625299 -3.243400 -2.178000
v -27.330200 -8.402799 -4.888402
v -21.927299 -7.526998 -12.418200
v -19.962500 -11.976398 -10.005702
v -23.581800 -12.618600 -2.607202
v -10.449000 -7.147198 -11.742801
v -21.961901 -8.814398 -11.831002
v -24.968800 -8.236199 -5.193801
v 0.325500 -0.662996 -9.727800
v -2.211200 1.496901 -8.235700
v -15.197600 -8.142899 -10.287201
v -12.993200 -8.171298 -11.892701
v -0.306400 2.281402 -12.138900
v -12.229400 -9.857098 -11.028502
v -12.275000 -8.194599 -8.237101
v -4.696200 15.136198 10.049403
v -0.306299 2.281398 11.841800
v -2.211200 1.496899 7.938601
v 0.325500 -0.663000 9.430700
v -4.291900 2.183698 10.240800
v -12.993200 -8.171302 11.595699
v -12.275000 -8.194601 7.939999
v -10.147500 16.956598 7.205403
v -4.273200 21.286798 6.091503
v -4.050900 21.297102 -6.400597
v -18.564301 21.351700 -0.145697
v -12.581400 10.298500 1.752102
v -14.432900 21.996201 5.069904
v -2.922000 4.054899 5.954801
v -8.678900 11.457699 7.480502
v -5.394600 23.524200 -2.083096
v -0.629299 2.759001 -6.130700
v 18.609400 -2.772500 -3.489701
v -1.831500 9.791001 -8.136098
v 18.613701 -3.560200 2.138400
v 31.693899 -2.435300 1.068000
v 3.709500 -1.259600 1.074100
v -10.236400 7.574800 -3.055599
v 21.657101 16.430199 7.748603
v 42.748699 13.966899 5.840902
v 28.646200 -2.236001 4.692900
v 40.458302 19.685200 -2.530497
v 24.941601 21.798100 -0.148496
v 20.731800 6.269798 12.453001
v 32.138302 17.072199 9.983403
v 16.328699 3.961699 9.327001
v 35.929100 9.818498 11.636902
v 39.721001 4.000799 7.477400
v 18.560902 5.185452 -11.203300
v 21.657000 16.430101 -8.045697
v 32.142200 17.057802 -10.295897
v 35.929100 9.818402 -11.933998
v -5.013200 1.929802 -10.975200
v -9.826400 14.611001 -7.584898
v -5.227800 15.381102 -10.449197
v -5.591800 -23.673903 10.203696
v -13.340900 -19.591702 10.890798
v -11.879500 -17.530199 5.110997
v -3.714400 -18.244301 5.397797
v -13.925600 -19.570202 9.601997
v -10.782900 -15.826601 5.640198
v -3.589000 -19.807899 4.542797
v -1.711600 9.925200 7.869301
v 41.505901 0.105602 -0.109200
v 39.721100 4.000802 -7.774499
v 27.398600 -9.810700 -0.148502
v 30.697800 -0.920398 -3.111000
v 47.078400 5.350300 -0.181899
v -11.879400 -17.530201 14.198597
v -3.196000 -18.292803 14.170797
v -10.944000 -16.999203 12.475897
v -10.716200 -15.882902 13.700597
v -15.197500 -8.142802 9.990099
v -12.229400 -9.857101 10.731398
v -3.976100 -19.886501 14.683797
v -6.291400 -21.392002 10.190096
v -11.326500 -19.114502 9.869597
v -12.395300 -16.205502 7.683197
v -31.524500 34.049000 -3.965995
v -41.663799 31.511000 -2.415595
v -25.702200 29.248302 -5.911495
v -28.618500 34.562401 -5.149994
v -22.191799 28.952499 -4.844395
v -20.619101 36.904099 -5.969494
v -10.870700 24.610800 -4.670896
v -14.432800 21.996000 -5.366896
v -9.205300 29.070900 -0.148495
v -23.711100 27.556499 1.087705
v -12.466500 38.953800 3.091806
v -8.840600 23.524700 4.038604
v -24.050400 29.221699 5.858005
v -28.618500 34.562401 4.852906
v -25.129900 34.799000 5.569606
v -21.399900 35.713699 5.739106
v -33.075600 33.486301 3.513406
v -28.641300 34.640202 4.892806
v -35.136902 39.614498 2.443707
v -32.336102 41.224800 -0.148493
v -42.484699 35.183701 -2.624794
v -40.037102 31.760700 -3.011195
v -35.791801 39.266602 -2.588994
v -42.911800 35.456100 2.060306
v -26.299900 43.697601 -4.699893
v -11.826700 39.069901 -2.544594
v -19.968000 43.362701 -4.470193
v -27.157900 34.720901 -5.506294
v -32.712799 33.569000 -3.904195
v -19.968000 43.362598 4.173107
v -28.549000 40.613499 3.957807
v -21.189600 43.982700 -0.086493
v -26.261000 43.645000 4.417507
v -39.915199 31.378099 2.926305
v -44.722305 32.023499 -0.585995
v -28.774799 40.787300 -4.187193
v -28.641300 34.640202 -5.189894
v -25.129900 34.799000 -5.866694
v -31.531599 34.057098 3.670506
v -39.807499 29.396200 -3.118395
v -41.753799 29.912600 2.048605
v -44.122902 31.136900 -0.148495
v -27.145500 34.725399 -5.481994
v -27.145500 34.725399 5.184906
v -27.157900 34.720901 5.209206
v 85.765800 20.656500 -3.869597
v 88.316803 17.477200 -0.148497
v 42.748798 13.966801 -6.137897
v 85.765404 20.656500 3.572603
v 158.302002 28.146299 -0.611895
v 77.722702 22.530500 -3.901096
v 132.770996 27.483999 0.681904
v 42.531200 18.583300 4.740103
v 17.967640 -7.165569 6.861699
v 30.344383 -5.532054 8.175499
v 21.021324 -6.963204 11.815499
v 27.548149 -2.206946 4.692900
v 16.281693 -3.466373 9.507999
v 16.612385 -8.835382 10.029298
v 21.119898 -6.795652 11.815499
v 26.537937 -15.769017 11.943197
v 26.594242 -21.448759 6.627296
v 30.667643 -27.454176 8.669095
v 25.371784 -26.222723 8.204296
v 25.887646 -25.399628 11.302197
v 22.728434 -36.586548 4.553893
v 20.599287 -41.353443 4.009792
v 28.733015 -40.354439 5.400293
v 26.526400 -46.292068 7.621993
v 26.451839 -46.228741 4.486392
v 21.697205 -41.723515 6.505093
v 19.320484 -36.046307 5.281294
v 12.380430 -47.769241 8.449593
v 27.023973 -46.314056 10.148692
v 18.174288 -47.910606 15.666393
v 14.282036 -47.327312 15.670692
v 17.220284 -43.953239 14.720093
v 15.938889 -44.099102 8.679792
v 17.541664 -48.328339 9.945393
v 23.891964 -40.618542 12.793094
v 29.866074 -42.160057 11.176394
v 22.637461 -41.660172 8.948294
v 24.792601 -38.556328 6.232294
v 21.546412 -8.662697 -9.664101
v 15.705797 -3.412552 -12.112601
v 11.180885 -1.689356 -10.326400
v 13.314228 -1.493155 -7.158801
v 22.237726 -10.181067 -7.227602
v 15.461599 -3.645265 -12.112601
v 22.125160 -7.801433 -9.664101
v 13.233883 -22.604286 -8.501304
v 23.069637 -9.176690 -7.227602
v 18.197254 -26.238407 -8.966104
v 17.859238 -13.849655 -12.240202
v 17.423714 -19.421473 -6.924403
v 14.211501 -22.257933 -11.599304
v 39.443451 -31.573828 -14.152104
v 35.392784 -32.087231 -15.196105
v 37.306465 -22.073378 -10.445804
v 38.986271 -30.380795 -15.979304
v 37.302475 -22.571423 -7.919104
v 31.288977 -20.580849 -5.697403
v 39.662163 -31.476797 -10.242505
v 32.814156 -26.625229 -9.245405
v 39.289822 -36.654682 -8.746706
v 35.493618 -33.231377 -8.976906
v 16.946018 -23.710348 -11.599304
v 15.389775 -18.296610 -8.966103
v 33.052361 -19.383286 -11.473504
v 31.727768 -25.409208 -13.090104
v 17.968981 -23.881380 -8.501304
v 12.761410 -24.633858 -6.924404
v 39.457554 -35.924915 -16.504305
v 27.323940 -30.142914 -5.578305
v 27.740566 -26.717686 -4.851004
v 32.581291 -28.673161 -4.306906
v 29.634357 -24.583693 -6.529504
v 37.241875 -22.648220 -4.783505
v 32.911461 -27.562675 -6.802204
s off
f 182 183 184
f 196 197 198
f 172 171 153
f 185 180 175
f 183 175 178
f 185 175 183
f 2 3 16
f 16 3 15
f 17 15 3
f 1 17 3
f 2 4 3
f 4 5 3
f 5 6 7
f 3 5 1
f 8 7 10
f 5 7 8
f 12 10 7
f 10 12 9
f 9 11 10
f 11 17 10
f 8 10 17
f 7 17 11
f 12 7 11
f 9 12 11
f 13 14 19
f 14 6 19
f 7 6 14
f 17 7 14
f 18 14 13
f 14 18 17
f 4 15 17
f 15 4 16
f 17 18 5
f 18 6 5
f 18 19 6
f 18 13 19
f 16 4 2
f 5 4 17
f 20 45 21
f 20 24 45
f 24 66 45
f 20 21 26
f 25 20 26
f 22 64 23
f 64 24 23
f 23 24 25
f 24 20 25
f 21 64 26
f 26 64 22
f 28 30 74
f 27 28 74
f 74 30 29
f 30 33 29
f 30 85 33
f 85 30 28
f 32 85 28
f 28 31 32
f 32 31 84
f 31 29 33
f 84 31 33
f 74 29 41
f 31 41 29
f 28 41 31
f 34 27 35
f 28 27 41
f 41 27 34
f 97 49 37
f 96 36 97
f 42 36 96
f 97 65 49
f 49 38 37
f 38 39 37
f 38 34 39
f 34 35 39
f 40 41 38
f 74 41 40
f 57 74 40
f 35 74 57
f 38 41 34
f 35 57 50
f 36 42 54
f 39 35 101
f 42 101 35
f 36 54 61
f 61 54 62
f 54 53 62
f 60 36 61
f 48 43 46
f 43 44 46
f 44 43 60
f 45 60 43
f 60 45 36
f 36 65 97
f 48 49 43
f 43 65 45
f 65 43 49
f 57 46 47
f 40 46 57
f 48 46 40
f 49 48 40
f 38 49 40
f 54 35 50
f 50 56 54
f 56 142 54
f 51 142 56
f 59 52 47
f 52 57 47
f 142 53 54
f 35 54 42
f 55 58 56
f 50 55 56
f 55 50 57
f 51 56 58
f 58 59 51
f 137 63 62
f 76 63 137
f 66 64 65
f 65 64 21
f 45 65 21
f 64 66 24
f 36 66 65
f 45 66 36
f 71 89 88
f 87 71 88
f 67 71 87
f 67 68 71
f 84 71 68
f 70 69 73
f 70 89 69
f 89 84 69
f 71 84 89
f 84 33 72
f 84 72 69
f 73 69 72
f 70 73 72
f 35 27 74
f 47 75 59
f 59 75 51
f 46 77 47
f 79 76 137
f 75 76 79
f 78 76 75
f 78 75 47
f 77 78 47
f 46 44 77
f 78 77 44
f 53 137 62
f 60 78 44
f 75 79 51
f 83 86 81
f 80 86 83
f 84 80 83
f 32 84 83
f 81 82 83
f 32 83 85
f 85 83 82
f 89 72 33
f 33 85 89
f 89 70 72
f 84 85 82
f 86 82 81
f 82 80 84
f 86 80 82
f 67 87 68
f 68 87 88
f 68 88 85
f 85 84 68
f 85 88 89
f 90 132 93
f 129 91 90
f 129 90 92
f 92 95 94
f 90 93 92
f 93 132 92
f 132 127 92
f 127 95 92
f 94 95 96
f 95 115 96
f 96 115 98
f 96 97 94
f 42 96 98
f 115 100 98
f 42 98 101
f 98 100 101
f 101 105 39
f 39 105 99
f 39 99 37
f 99 94 37
f 92 94 129
f 94 97 37
f 129 94 99
f 129 102 130
f 99 102 129
f 105 102 99
f 100 105 101
f 105 104 102
f 133 102 104
f 103 102 133
f 103 128 102
f 120 104 105
f 134 104 120
f 107 134 120
f 120 106 107
f 120 108 106
f 108 113 106
f 122 109 108
f 110 124 113
f 111 124 110
f 111 110 112
f 112 118 111
f 110 113 112
f 112 109 125
f 112 113 109
f 113 108 109
f 125 118 112
f 125 114 95
f 116 95 114
f 116 115 95
f 116 121 115
f 125 109 114
f 114 121 116
f 121 114 109
f 121 109 122
f 126 117 118
f 119 122 105
f 105 100 119
f 122 119 121
f 105 122 120
f 115 121 100
f 100 121 119
f 120 122 108
f 113 123 106
f 123 113 124
f 125 126 118
f 125 117 126
f 125 127 117
f 125 95 127
f 102 128 130
f 131 129 130
f 131 91 129
f 132 117 127
f 126 117 132
f 134 133 104
f 107 133 134
f 126 132 93
f 137 140 135
f 135 79 137
f 136 79 135
f 135 140 139
f 135 139 136
f 53 140 137
f 79 136 138
f 138 51 79
f 142 51 138
f 53 141 140
f 139 140 141
f 136 139 138
f 141 138 139
f 138 141 142
f 142 141 53
f 55 145 58
f 153 154 148
f 145 55 147
f 145 144 58
f 55 57 147
f 146 143 57
f 143 147 57
f 147 148 145
f 148 147 143
f 143 146 144
f 58 144 59
f 174 175 60
f 151 143 144
f 152 151 150
f 144 146 59
f 154 152 150
f 153 143 151
f 153 148 143
f 149 148 150
f 157 151 152
f 172 153 151
f 169 154 153
f 166 165 164
f 156 155 172
f 156 172 157
f 159 158 160
f 156 159 160
f 156 157 159
f 156 160 161
f 155 156 161
f 161 160 172
f 168 162 158
f 158 162 171
f 171 172 160
f 163 168 158
f 157 163 158
f 157 158 159
f 170 163 157
f 164 165 163
f 164 163 170
f 171 165 166
f 163 165 171
f 171 167 168
f 171 168 163
f 171 162 167
f 166 169 171
f 169 166 170
f 166 164 170
f 170 154 169
f 157 172 151
f 162 168 167
f 172 155 161
f 160 158 171
f 173 76 78
f 176 78 60
f 63 60 62
f 176 177 78
f 63 174 60
f 62 60 61
f 177 173 78
f 178 179 183
f 183 179 181
f 171 169 153
f 184 181 176
f 180 184 176
f 175 180 176
f 150 151 144
f 184 183 181
f 183 182 185
f 192 194 195
f 186 193 187
f 188 193 186
f 198 191 188
f 186 189 188
f 188 189 198
f 190 191 207
f 188 191 190
f 192 188 190
f 194 193 195
f 194 192 190
f 190 193 194
f 208 206 193
f 193 188 192
f 195 193 192
f 193 199 187
f 187 199 198
f 187 198 189
f 193 206 200
f 200 199 193
f 199 196 198
f 200 196 199
f 200 206 201
f 206 191 201
f 201 191 197
f 197 191 198
f 206 203 204
f 189 186 202
f 202 187 189
f 187 202 186
f 203 205 204
f 206 205 191
f 204 205 206
f 203 208 205
f 206 208 203
f 207 208 190
f 207 205 208
f 191 205 207
f 190 208 193
f 149 150 144
f 170 157 152
f 152 154 170
f 148 154 150
f 60 175 176
f 76 173 174
f 63 76 174
